<svg xmlns="http://www.w3.org/2000/svg" width="28" height="28" viewBox="0 0 28 28">
  <g id="Group_5297" data-name="Group 5297" transform="translate(18866 -1104)">
    <rect id="Rectangle_613" data-name="Rectangle 613" width="28" height="28" transform="translate(-18866 1104)" fill="none"/>
    <g id="Group_1448" data-name="Group 1448" transform="translate(-18861 1108.7)">
      <rect id="Rectangle_614" data-name="Rectangle 614" width="18" height="17" rx="1" transform="translate(0 1.8)" fill="none" stroke="#fff" stroke-linecap="round" stroke-linejoin="round" stroke-width="1"/>
      <g id="Group_1447" data-name="Group 1447" transform="translate(4.119 0.3)">
        <line id="Line_81" data-name="Line 81" y2="2.697" transform="translate(9.899)" fill="none" stroke="#fff" stroke-linecap="round" stroke-linejoin="round" stroke-width="1"/>
        <line id="Line_82" data-name="Line 82" y2="2.697" fill="none" stroke="#fff" stroke-linecap="round" stroke-linejoin="round" stroke-width="1"/>
      </g>
      <line id="Line_83" data-name="Line 83" x2="18" transform="translate(0 5.8)" fill="none" stroke="#fff" stroke-linecap="round" stroke-linejoin="round" stroke-width="1"/>
      <path id="Path_995" data-name="Path 995" d="M100.124,128l-5.269,4.965L92,130.257" transform="translate(-86.994 -117.979)" fill="none" stroke="#fff" stroke-linecap="round" stroke-linejoin="round" stroke-width="1"/>
    </g>
  </g>
</svg>
