<svg xmlns="http://www.w3.org/2000/svg" width="28" height="28" viewBox="0 0 28 28">
  <g id="Group_5295" data-name="Group 5295" transform="translate(18866 -1698)">
    <rect id="Rectangle_621" data-name="Rectangle 621" width="28" height="28" transform="translate(-18866 1698)" fill="none" opacity="0.3"/>
    <g id="Group_5266" data-name="Group 5266" transform="translate(-18862.854 1703.53)">
      <g id="Group_5267" data-name="Group 5267" transform="translate(0.854 0.47)">
        <rect id="Rectangle_622" data-name="Rectangle 622" width="19.063" height="15.25" fill="none" stroke="#fff" stroke-linecap="round" stroke-linejoin="round" stroke-width="1"/>
        <path id="Path_1009" data-name="Path 1009" d="M95.625,88A3.814,3.814,0,1,1,88,88" transform="translate(-82.281 -84.627)" fill="none" stroke="#fff" stroke-linecap="round" stroke-linejoin="round" stroke-width="1"/>
      </g>
    </g>
  </g>
</svg>
